<svg xmlns="http://www.w3.org/2000/svg" width="19" height="19">
    <circle cx="50%" cy="50%" r="50%" class="svg-fill"/>
    <line x1="50%" y1="7" x2="50%" y2="12" class="svg-stroke"/>
    <line x1="7" y1="50%" x2="12" y2="50%" class="svg-stroke"/>
</svg>
